<?xml version="1.0" encoding="UTF-8"?>
<svg width="38px" height="50px" viewBox="0 0 38 50" version="1.1" xmlns="http://www.w3.org/2000/svg" xmlns:xlink="http://www.w3.org/1999/xlink">
    <!-- Generator: Sketch 50.2 (55047) - http://www.bohemiancoding.com/sketch -->
    <title>004-shopping-list</title>
    <desc>Created with Sketch.</desc>
    <defs></defs>
    <g id="Page-1" stroke="none" stroke-width="1" fill="none" fill-rule="evenodd">
        <g id="Home" transform="translate(-1083.000000, -2000.000000)" fill="#FFC41F" fill-rule="nonzero">
            <g id="004-shopping-list" transform="translate(1083.000000, 2000.000000)">
                <path d="M26.9166667,3.125 L23.4776667,3.125 C22.8253333,1.30625 21.0646667,0 19,0 C16.9353333,0 15.1746667,1.30625 14.5191667,3.125 L11.0833333,3.125 C10.2093333,3.125 9.5,3.825 9.5,4.6875 L9.5,10.9375 C9.5,11.8 10.2093333,12.5 11.0833333,12.5 L26.9166667,12.5 C27.7906667,12.5 28.5,11.8 28.5,10.9375 L28.5,4.6875 C28.5,3.825 27.7906667,3.125 26.9166667,3.125 Z" id="Shape"></path>
                <path d="M34.8333333,6.25 L31.6666667,6.25 L31.6666667,10.9375 C31.6666667,13.521875 29.5355,15.625 26.9166667,15.625 L11.0833333,15.625 C8.4645,15.625 6.33333333,13.521875 6.33333333,10.9375 L6.33333333,6.25 L3.16666667,6.25 C1.42183333,6.25 0,7.653125 0,9.375 L0,46.875 C0,48.628125 1.39016667,50 3.16666667,50 L34.8333333,50 C36.6098333,50 38,48.628125 38,46.875 L38,9.375 C38,7.621875 36.6098333,6.25 34.8333333,6.25 Z M18.5376667,33.91875 L12.2043333,40.16875 C11.894,40.471875 11.4886667,40.625 11.0833333,40.625 C10.678,40.625 10.2726667,40.471875 9.96233333,40.16875 L6.79566667,37.04375 C6.17816667,36.434375 6.17816667,35.44375 6.79566667,34.834375 C7.41316667,34.225 8.417,34.225 9.0345,34.834375 L11.0833333,36.853125 L16.2956667,31.709375 C16.9131667,31.1 17.917,31.1 18.5345,31.709375 C19.152,32.31875 19.1551667,33.30625 18.5376667,33.91875 Z M18.5376667,21.41875 L12.2043333,27.66875 C11.894,27.971875 11.4886667,28.125 11.0833333,28.125 C10.678,28.125 10.2726667,27.971875 9.96233333,27.66875 L6.79566667,24.54375 C6.17816667,23.934375 6.17816667,22.94375 6.79566667,22.334375 C7.41316667,21.725 8.417,21.725 9.0345,22.334375 L11.0833333,24.353125 L16.2956667,19.209375 C16.9131667,18.6 17.917,18.6 18.5345,19.209375 C19.152,19.81875 19.1551667,20.80625 18.5376667,21.41875 Z M30.0833333,37.5 L23.75,37.5 C22.876,37.5 22.1666667,36.8 22.1666667,35.9375 C22.1666667,35.075 22.876,34.375 23.75,34.375 L30.0833333,34.375 C30.9573333,34.375 31.6666667,35.075 31.6666667,35.9375 C31.6666667,36.8 30.9573333,37.5 30.0833333,37.5 Z M30.0833333,25 L23.75,25 C22.876,25 22.1666667,24.3 22.1666667,23.4375 C22.1666667,22.575 22.876,21.875 23.75,21.875 L30.0833333,21.875 C30.9573333,21.875 31.6666667,22.575 31.6666667,23.4375 C31.6666667,24.3 30.9573333,25 30.0833333,25 Z" id="Shape"></path>
            </g>
        </g>
    </g>
</svg>