[debug] [2018-10-04T15:28:04.659Z] ----------------------------------------------------------------------
[debug] [2018-10-04T15:28:04.661Z] Command:       /usr/local/bin/node /usr/local/bin/firebase functions:log
[debug] [2018-10-04T15:28:04.661Z] CLI Version:   4.0.0
[debug] [2018-10-04T15:28:04.661Z] Platform:      darwin
[debug] [2018-10-04T15:28:04.661Z] Node Version:  v8.10.0
[debug] [2018-10-04T15:28:04.661Z] Time:          Thu Oct 04 2018 10:28:04 GMT-0500 (-05)
[debug] [2018-10-04T15:28:04.661Z] ----------------------------------------------------------------------
[debug] 
[debug] [2018-10-04T15:28:04.760Z] > command requires scopes: ["email","openid","https://www.googleapis.com/auth/cloudplatformprojects.readonly","https://www.googleapis.com/auth/firebase","https://www.googleapis.com/auth/cloud-platform"]
[debug] [2018-10-04T15:28:04.760Z] > authorizing via signed-in user
[debug] [2018-10-04T15:28:04.762Z] >>> HTTP REQUEST GET https://admin.firebase.com/v1/projects/usantoto-693aa  
  
 Thu Oct 04 2018 10:28:04 GMT-0500 (-05)
[debug] [2018-10-04T15:28:05.890Z] <<< HTTP RESPONSE 200
[debug] [2018-10-04T15:28:05.891Z] >>> HTTP REQUEST GET https://admin.firebase.com/v1/database/usantoto-693aa/tokens  
  
 Thu Oct 04 2018 10:28:05 GMT-0500 (-05)
[debug] [2018-10-04T15:28:06.300Z] <<< HTTP RESPONSE 200
[debug] [2018-10-04T15:28:06.301Z] >>> HTTP REQUEST POST https://logging.googleapis.com/v2beta1/entries:list  
 { projectIds: [ 'usantoto-693aa' ],
  filter: 'resource.type="cloud_function" ',
  orderBy: 'timestamp desc',
  pageSize: 35 } 
 Thu Oct 04 2018 10:28:06 GMT-0500 (-05)
